{
  "Comment.nvim": { "branch": "master", "commit": "0236521ea582747b58869cb72f70ccfa967d2e89" },
  "LuaSnip": { "branch": "master", "commit": "2dbef19461198630b3d7c39f414d09fb07d1fdd2" },
  "autolist.nvim": { "branch": "main", "commit": "5f70a5f99e96c8fe3069de042abd2a8ed2deb855" },
  "cmp-nvim-lsp": { "branch": "main", "commit": "5af77f54de1b16c34b23cba810150689a3a90312" },
  "cmp-path": { "branch": "main", "commit": "91ff86cd9c29299a64f968ebb45846c485725f23" },
  "cmp_luasnip": { "branch": "master", "commit": "05a9ab28b53f71d1aece421ef32fee2cb857a843" },
  "fidget.nvim": { "branch": "main", "commit": "ad8873c16faa123fe3f9fd6539c41dfb0f97a9e9" },
  "friendly-snippets": { "branch": "main", "commit": "b8fae73a479ae0a1c54f5c98fa687ae8a0addc53" },
  "gitsigns.nvim": { "branch": "main", "commit": "2c2463dbd82eddd7dbab881c3a62cfbfbe3c67ae" },
  "image.nvim": { "branch": "master", "commit": "6ca359021f7bc3d850d4592cf8bf6295f457b2c5" },
  "indent-blankline.nvim": { "branch": "master", "commit": "12e92044d313c54c438bd786d11684c88f6f78cd" },
  "lazy.nvim": { "branch": "main", "commit": "aedcd79811d491b60d0a6577a9c1701063c2a609" },
  "lualine.nvim": { "branch": "master", "commit": "7d131a8d3ba5016229e8a1d08bf8782acea98852" },
  "luarocks.nvim": { "branch": "main", "commit": "1db9093915eb16ba2473cfb8d343ace5ee04130a" },
  "mason-lspconfig.nvim": { "branch": "main", "commit": "0954d7730e749d606ddf8d7ae8846848be435d53" },
  "mason.nvim": { "branch": "main", "commit": "c43eeb5614a09dc17c03a7fb49de2e05de203924" },
  "neodev.nvim": { "branch": "main", "commit": "0ee95ecefc8ea45898a0383364f736e098c8703f" },
  "nvim-autopairs": { "branch": "master", "commit": "3d02855468f94bf435db41b661b58ec4f48a06b7" },
  "nvim-cmp": { "branch": "main", "commit": "04e0ca376d6abdbfc8b52180f8ea236cbfddf782" },
  "nvim-lspconfig": { "branch": "master", "commit": "f12f1b9e877b1e6e2ef7eae1a524d8253af4243d" },
  "nvim-tetris": { "branch": "master", "commit": "d17c99fb527ada98ffb0212ffc87ccda6fd4f7d9" },
  "nvim-treesitter": { "branch": "master", "commit": "76700e147bfab7630e6b97f91b32397175e8153f" },
  "nvim-treesitter-textobjects": { "branch": "master", "commit": "dd0b2036c3a27cb6e6486f8bd24188c6ca43af0b" },
  "oil.nvim": { "branch": "master", "commit": "bcfc0a2e01def5019aa14fac2fc6de20dedb6d3d" },
  "onedark.nvim": { "branch": "master", "commit": "1230aaf2a427b2c5b73aba6e4a9a5881d3e69429" },
  "otter.nvim": { "branch": "main", "commit": "837f258040d0174ff8495584088046f98499b1ac" },
  "plenary.nvim": { "branch": "master", "commit": "4f71c0c4a196ceb656c824a70792f3df3ce6bb6d" },
  "render-markdown.nvim": { "branch": "main", "commit": "6392a5dfa10f367e10fe58ea9c2faf3179b145d5" },
  "telescope-fzf-native.nvim": { "branch": "main", "commit": "6c921ca12321edaa773e324ef64ea301a1d0da62" },
  "telescope.nvim": { "branch": "0.1.x", "commit": "d90956833d7c27e73c621a61f20b29fdb7122709" },
  "tokyonight.nvim": { "branch": "main", "commit": "610179f7f12db3d08540b6cc61434db2eaecbcff" },
  "vim-fugitive": { "branch": "master", "commit": "fab00f7c0f3a08e860e39c7adeb8fbe849921a98" },
  "vim-rhubarb": { "branch": "master", "commit": "ee69335de176d9325267b0fd2597a22901d927b1" },
  "vim-sleuth": { "branch": "master", "commit": "1cc4557420f215d02c4d2645a748a816c220e99b" },
  "which-key.nvim": { "branch": "main", "commit": "4433e5ec9a507e5097571ed55c02ea9658fb268a" }
}